mc16a/user.wendlanb.410464.aMcAtNloPy8EvtGen.DAOD_TOPQ1.e6762_a875_r9364_p3629.AT21.2.58.v00_output.root/user.wendlanb.16619788._000001.output.root
mc16a/user.wendlanb.410464.aMcAtNloPy8EvtGen.DAOD_TOPQ1.e6762_a875_r9364_p3629.AT21.2.58.v00_output.root/user.wendlanb.16619788._000002.output.root
mc16a/user.wendlanb.410464.aMcAtNloPy8EvtGen.DAOD_TOPQ1.e6762_a875_r9364_p3629.AT21.2.58.v00_output.root/user.wendlanb.16619788._000003.output.root
mc16a/user.wendlanb.410464.aMcAtNloPy8EvtGen.DAOD_TOPQ1.e6762_a875_r9364_p3629.AT21.2.58.v00_output.root/user.wendlanb.16619788._000004.output.root
mc16a/user.wendlanb.410464.aMcAtNloPy8EvtGen.DAOD_TOPQ1.e6762_a875_r9364_p3629.AT21.2.58.v00_output.root/user.wendlanb.16619788._000005.output.root
mc16a/user.wendlanb.410464.aMcAtNloPy8EvtGen.DAOD_TOPQ1.e6762_a875_r9364_p3629.AT21.2.58.v00_output.root/user.wendlanb.16619788._000006.output.root
mc16a/user.wendlanb.410464.aMcAtNloPy8EvtGen.DAOD_TOPQ1.e6762_a875_r9364_p3629.AT21.2.58.v00_output.root/user.wendlanb.16619788._000007.output.root
mc16a/user.wendlanb.410464.aMcAtNloPy8EvtGen.DAOD_TOPQ1.e6762_a875_r9364_p3629.AT21.2.58.v00_output.root/user.wendlanb.16619788._000008.output.root
mc16a/user.wendlanb.410480.PhPy8EG.DAOD_TOPQ1.e6454_a875_r9364_p3629.AT21.2.58.v00_output.root/user.wendlanb.16619789._000001.output.root
mc16a/user.wendlanb.410480.PhPy8EG.DAOD_TOPQ1.e6454_a875_r9364_p3629.AT21.2.58.v00_output.root/user.wendlanb.16619789._000002.output.root
mc16a/user.wendlanb.410480.PhPy8EG.DAOD_TOPQ1.e6454_a875_r9364_p3629.AT21.2.58.v00_output.root/user.wendlanb.16619789._000003.output.root
mc16a/user.wendlanb.410480.PhPy8EG.DAOD_TOPQ1.e6454_a875_r9364_p3629.AT21.2.58.v00_output.root/user.wendlanb.16619789._000004.output.root
mc16a/user.wendlanb.410480.PhPy8EG.DAOD_TOPQ1.e6454_a875_r9364_p3629.AT21.2.58.v00_output.root/user.wendlanb.16619789._000005.output.root
mc16a/user.wendlanb.410480.PhPy8EG.DAOD_TOPQ1.e6454_a875_r9364_p3629.AT21.2.58.v00_output.root/user.wendlanb.16619789._000006.output.root
mc16a/user.wendlanb.410480.PhPy8EG.DAOD_TOPQ1.e6454_a875_r9364_p3629.AT21.2.58.v00_output.root/user.wendlanb.16619789._000007.output.root
mc16a/user.wendlanb.410480.PhPy8EG.DAOD_TOPQ1.e6454_a875_r9364_p3629.AT21.2.58.v00_output.root/user.wendlanb.16619789._000008.output.root
mc16a/user.wendlanb.410480.PhPy8EG.DAOD_TOPQ1.e6454_a875_r9364_p3629.AT21.2.58.v00_output.root/user.wendlanb.16619789._000009.output.root
mc16a/user.wendlanb.410480.PhPy8EG.DAOD_TOPQ1.e6454_a875_r9364_p3629.AT21.2.58.v00_output.root/user.wendlanb.16619789._000010.output.root
mc16a/user.wendlanb.410557.PowhegHerwig7EvtGen.DAOD_TOPQ1.e6366_a875_r9364_p3629.AT21.2.58.v00_output.root/user.wendlanb.16619786._000001.output.root
mc16a/user.wendlanb.410557.PowhegHerwig7EvtGen.DAOD_TOPQ1.e6366_a875_r9364_p3629.AT21.2.58.v00_output.root/user.wendlanb.16619786._000002.output.root
mc16a/user.wendlanb.410557.PowhegHerwig7EvtGen.DAOD_TOPQ1.e6366_a875_r9364_p3629.AT21.2.58.v00_output.root/user.wendlanb.16619786._000003.output.root
mc16a/user.wendlanb.410557.PowhegHerwig7EvtGen.DAOD_TOPQ1.e6366_a875_r9364_p3629.AT21.2.58.v00_output.root/user.wendlanb.16619786._000004.output.root
mc16a/user.wendlanb.410557.PowhegHerwig7EvtGen.DAOD_TOPQ1.e6366_a875_r9364_p3629.AT21.2.58.v00_output.root/user.wendlanb.16619786._000005.output.root
mc16a/user.wendlanb.410557.PowhegHerwig7EvtGen.DAOD_TOPQ1.e6366_a875_r9364_p3629.AT21.2.58.v00_output.root/user.wendlanb.16619786._000006.output.root
mc16a/user.wendlanb.410557.PowhegHerwig7EvtGen.DAOD_TOPQ1.e6366_a875_r9364_p3629.AT21.2.58.v00_output.root/user.wendlanb.16619786._000007.output.root
mc16a/user.wendlanb.410557.PowhegHerwig7EvtGen.DAOD_TOPQ1.e6366_a875_r9364_p3629.AT21.2.58.v00_output.root/user.wendlanb.16619786._000008.output.root
mc16a/user.wendlanb.410557.PowhegHerwig7EvtGen.DAOD_TOPQ1.e6366_a875_r9364_p3629.AT21.2.58.v00_output.root/user.wendlanb.16619786._000009.output.root
mc16a/user.wendlanb.410654.PowhegPythia8EvtGen.DAOD_TOPQ1.e6552_s3126_r9364_p3629.AT21.2.58.v00_output.root/user.wendlanb.16619775._000001.output.root
mc16a/user.wendlanb.410654.PowhegPythia8EvtGen.DAOD_TOPQ1.e6552_s3126_r9364_p3629.AT21.2.58.v00_output.root/user.wendlanb.16619775._000002.output.root
mc16a/user.wendlanb.410655.PowhegPythia8EvtGen.DAOD_TOPQ1.e6552_s3126_r9364_p3629.AT21.2.58.v00_output.root/user.wendlanb.16619776._000001.output.root
mc16a/user.wendlanb.410655.PowhegPythia8EvtGen.DAOD_TOPQ1.e6552_s3126_r9364_p3629.AT21.2.58.v00_output.root/user.wendlanb.16619776._000002.output.root
mc16a/user.wendlanb.411032.PowhegHerwig7EvtGen.DAOD_TOPQ1.e6719_a875_r9364_p3629.AT21.2.58.v00_output.root/user.wendlanb.16619760._000001.output.root
mc16a/user.wendlanb.411032.PowhegHerwig7EvtGen.DAOD_TOPQ1.e6719_a875_r9364_p3629.AT21.2.58.v00_output.root/user.wendlanb.16619760._000002.output.root
mc16a/user.wendlanb.411032.PowhegHerwig7EvtGen.DAOD_TOPQ1.e6719_a875_r9364_p3629.AT21.2.58.v00_output.root/user.wendlanb.16619760._000003.output.root
mc16a/user.wendlanb.411033.PowhegHerwig7EvtGen.DAOD_TOPQ1.e6719_a875_r9364_p3629.AT21.2.58.v00_output.root/user.wendlanb.16619763._000001.output.root
mc16a/user.wendlanb.411033.PowhegHerwig7EvtGen.DAOD_TOPQ1.e6719_a875_r9364_p3629.AT21.2.58.v00_output.root/user.wendlanb.16619763._000002.output.root
mc16a/user.wendlanb.411034.PhHerwig7EG.DAOD_TOPQ1.e6734_a875_r9364_p3629.AT21.2.58.v00_output.root/user.wendlanb.16619766._000001.output.root
mc16a/user.wendlanb.411034.PhHerwig7EG.DAOD_TOPQ1.e6734_a875_r9364_p3629.AT21.2.58.v00_output.root/user.wendlanb.16619766._000002.output.root
mc16a/user.wendlanb.411035.PhHerwig7EG.DAOD_TOPQ1.e6734_a875_r9364_p3629.AT21.2.58.v00_output.root/user.wendlanb.16619767._000001.output.root
mc16a/user.wendlanb.411035.PhHerwig7EG.DAOD_TOPQ1.e6734_a875_r9364_p3629.AT21.2.58.v00_output.root/user.wendlanb.16619767._000002.output.root
mc16a/user.wendlanb.411036.PowhegHerwig7EvtGen.DAOD_TOPQ1.e6702_a875_r9364_p3629.AT21.2.58.v00_output.root/user.wendlanb.16619778._000001.output.root
mc16a/user.wendlanb.411037.PowhegHerwig7EvtGen.DAOD_TOPQ1.e6702_a875_r9364_p3629.AT21.2.58.v00_output.root/user.wendlanb.16619781._000001.output.root
mc16a/user.wendlanb.411037.PowhegHerwig7EvtGen.DAOD_TOPQ1.e6702_a875_r9364_p3629.AT21.2.58.v00_output.root/user.wendlanb.16619781._000002.output.root
mc16a/user.wendlanb.412002.aMcAtNloPythia8EvtGen.DAOD_TOPQ1.e6817_a875_r9364_p3629.AT21.2.58.v00_output.root/user.wendlanb.16619782._000001.output.root
mc16a/user.wendlanb.412002.aMcAtNloPythia8EvtGen.DAOD_TOPQ1.e6817_a875_r9364_p3629.AT21.2.58.v00_output.root/user.wendlanb.16619782._000002.output.root
mc16a/user.wendlanb.412004.aMcAtNloPy8EG.DAOD_TOPQ1.e6888_a875_r9364_p3629.AT21.2.58.v00_output.root/user.wendlanb.16619765._000001.output.root
mc16a/user.wendlanb.412004.aMcAtNloPy8EG.DAOD_TOPQ1.e6888_a875_r9364_p3629.AT21.2.58.v00_output.root/user.wendlanb.16619765._000002.output.root
mc16a/user.wendlanb.412004.aMcAtNloPy8EG.DAOD_TOPQ1.e6888_a875_r9364_p3629.AT21.2.58.v00_output.root/user.wendlanb.16619765._000003.output.root
mc16a/user.wendlanb.412004.aMcAtNloPy8EG.DAOD_TOPQ1.e6888_a875_r9364_p3629.AT21.2.58.v00_output.root/user.wendlanb.16619765._000004.output.root
mc16a/user.wendlanb.412004.aMcAtNloPy8EG.DAOD_TOPQ1.e6888_a875_r9364_p3629.AT21.2.58.v00_output.root/user.wendlanb.16619765._000005.output.root
mc16a/user.wendlanb.412004.aMcAtNloPy8EG.DAOD_TOPQ1.e6888_a875_r9364_p3629.AT21.2.58.v00_output.root/user.wendlanb.16619765._000006.output.root
mc16a/user.wendlanb.412005.aMcAtNloPythia8EvtGen.DAOD_TOPQ1.e6867_a875_r9364_p3629.AT21.2.58.v00_output.root/user.wendlanb.16619770._000001.output.root
mc16a/user.wendlanb.412005.aMcAtNloPythia8EvtGen.DAOD_TOPQ1.e6867_a875_r9364_p3629.AT21.2.58.v00_output.root/user.wendlanb.16619770._000002.output.root
mc16a/user.wendlanb.412005.aMcAtNloPythia8EvtGen.DAOD_TOPQ1.e6867_a875_r9364_p3629.AT21.2.58.v00_output.root/user.wendlanb.16619770._000003.output.root
mc16a/user.wendlanb.412005.aMcAtNloPythia8EvtGen.DAOD_TOPQ1.e6867_a875_r9364_p3629.AT21.2.58.v00_output.root/user.wendlanb.16619770._000004.output.root
