mc16e/user.wendlanb.364100.Sherpa.DAOD_TOPQ1.e5271_s3126_r10724_p3629.AT21.2.58.v2.0_output.root/user.wendlanb.17413457._000001.output.root
mc16e/user.wendlanb.364100.Sherpa.DAOD_TOPQ1.e5271_s3126_r10724_p3629.AT21.2.58.v2.0_output.root/user.wendlanb.17413457._000002.output.root
mc16e/user.wendlanb.364100.Sherpa.DAOD_TOPQ1.e5271_s3126_r10724_p3629.AT21.2.58.v2.0_output.root/user.wendlanb.17413457._000003.output.root
mc16e/user.wendlanb.364101.Sherpa.DAOD_TOPQ1.e5271_s3126_r10724_p3629.AT21.2.58.v2.0_output.root/user.wendlanb.17413460._000001.output.root
mc16e/user.wendlanb.364101.Sherpa.DAOD_TOPQ1.e5271_s3126_r10724_p3629.AT21.2.58.v2.0_output.root/user.wendlanb.17413460._000003.output.root
mc16e/user.wendlanb.364101.Sherpa.DAOD_TOPQ1.e5271_s3126_r10724_p3629.AT21.2.58.v2.0_output.root/user.wendlanb.17413460._000004.output.root
mc16e/user.wendlanb.364101.Sherpa.DAOD_TOPQ1.e5271_s3126_r10724_p3629.AT21.2.58.v2.0_output.root/user.wendlanb.17413460._000005.output.root
mc16e/user.wendlanb.364101.Sherpa.DAOD_TOPQ1.e5271_s3126_r10724_p3629.AT21.2.58.v2.0_output.root/user.wendlanb.17413460._000006.output.root
mc16e/user.wendlanb.364101.Sherpa.DAOD_TOPQ1.e5271_s3126_r10724_p3629.AT21.2.58.v2.0_output.root/user.wendlanb.17413460._000007.output.root
mc16e/user.wendlanb.364102.Sherpa.DAOD_TOPQ1.e5271_s3126_r10724_p3629.AT21.2.58.v2.0_output.root/user.wendlanb.17413462._000001.output.root
mc16e/user.wendlanb.364102.Sherpa.DAOD_TOPQ1.e5271_s3126_r10724_p3629.AT21.2.58.v2.0_output.root/user.wendlanb.17413462._000002.output.root
mc16e/user.wendlanb.364102.Sherpa.DAOD_TOPQ1.e5271_s3126_r10724_p3629.AT21.2.58.v2.0_output.root/user.wendlanb.17413462._000004.output.root
mc16e/user.wendlanb.364102.Sherpa.DAOD_TOPQ1.e5271_s3126_r10724_p3629.AT21.2.58.v2.0_output.root/user.wendlanb.17413462._000005.output.root
mc16e/user.wendlanb.364102.Sherpa.DAOD_TOPQ1.e5271_s3126_r10724_p3629.AT21.2.58.v2.0_output.root/user.wendlanb.17413462._000007.output.root
mc16e/user.wendlanb.364103.Sherpa.DAOD_TOPQ1.e5271_s3126_r10724_p3629.AT21.2.58.v2.0_output.root/user.wendlanb.17413464._000001.output.root
mc16e/user.wendlanb.364103.Sherpa.DAOD_TOPQ1.e5271_s3126_r10724_p3629.AT21.2.58.v2.0_output.root/user.wendlanb.17413464._000002.output.root
mc16e/user.wendlanb.364103.Sherpa.DAOD_TOPQ1.e5271_s3126_r10724_p3629.AT21.2.58.v2.0_output.root/user.wendlanb.17413464._000003.output.root
mc16e/user.wendlanb.364103.Sherpa.DAOD_TOPQ1.e5271_s3126_r10724_p3629.AT21.2.58.v2.0_output.root/user.wendlanb.17413464._000004.output.root
mc16e/user.wendlanb.364104.Sherpa.DAOD_TOPQ1.e5271_s3126_r10724_p3629.AT21.2.58.v2.0_output.root/user.wendlanb.17413467._000001.output.root
mc16e/user.wendlanb.364104.Sherpa.DAOD_TOPQ1.e5271_s3126_r10724_p3629.AT21.2.58.v2.0_output.root/user.wendlanb.17413467._000002.output.root
mc16e/user.wendlanb.364104.Sherpa.DAOD_TOPQ1.e5271_s3126_r10724_p3629.AT21.2.58.v2.0_output.root/user.wendlanb.17413467._000003.output.root
mc16e/user.wendlanb.364105.Sherpa.DAOD_TOPQ1.e5271_s3126_r10724_p3629.AT21.2.58.v2.0_output.root/user.wendlanb.17413469._000001.output.root
mc16e/user.wendlanb.364105.Sherpa.DAOD_TOPQ1.e5271_s3126_r10724_p3629.AT21.2.58.v2.0_output.root/user.wendlanb.17413469._000002.output.root
mc16e/user.wendlanb.364105.Sherpa.DAOD_TOPQ1.e5271_s3126_r10724_p3629.AT21.2.58.v2.0_output.root/user.wendlanb.17413469._000003.output.root
mc16e/user.wendlanb.364105.Sherpa.DAOD_TOPQ1.e5271_s3126_r10724_p3629.AT21.2.58.v2.0_output.root/user.wendlanb.17413469._000004.output.root
mc16e/user.wendlanb.364106.Sherpa.DAOD_TOPQ1.e5271_s3126_r10724_p3629.AT21.2.58.v2.0_output.root/user.wendlanb.17413471._000001.output.root
mc16e/user.wendlanb.364106.Sherpa.DAOD_TOPQ1.e5271_s3126_r10724_p3629.AT21.2.58.v2.0_output.root/user.wendlanb.17413471._000002.output.root
mc16e/user.wendlanb.364106.Sherpa.DAOD_TOPQ1.e5271_s3126_r10724_p3629.AT21.2.58.v2.0_output.root/user.wendlanb.17413471._000003.output.root
mc16e/user.wendlanb.364106.Sherpa.DAOD_TOPQ1.e5271_s3126_r10724_p3629.AT21.2.58.v2.0_output.root/user.wendlanb.17413471._000007.output.root
mc16e/user.wendlanb.364106.Sherpa.DAOD_TOPQ1.e5271_s3126_r10724_p3629.AT21.2.58.v2.0_output.root/user.wendlanb.17413471._000008.output.root
mc16e/user.wendlanb.364107.Sherpa.DAOD_TOPQ1.e5271_s3126_r10724_p3629.AT21.2.58.v2.0_output.root/user.wendlanb.17413473._000001.output.root
mc16e/user.wendlanb.364107.Sherpa.DAOD_TOPQ1.e5271_s3126_r10724_p3629.AT21.2.58.v2.0_output.root/user.wendlanb.17413473._000002.output.root
mc16e/user.wendlanb.364107.Sherpa.DAOD_TOPQ1.e5271_s3126_r10724_p3629.AT21.2.58.v2.0_output.root/user.wendlanb.17413473._000003.output.root
mc16e/user.wendlanb.364107.Sherpa.DAOD_TOPQ1.e5271_s3126_r10724_p3629.AT21.2.58.v2.0_output.root/user.wendlanb.17413473._000004.output.root
mc16e/user.wendlanb.364108.Sherpa.DAOD_TOPQ1.e5271_s3126_r10724_p3629.AT21.2.58.v2.0_output.root/user.wendlanb.17413475._000001.output.root
mc16e/user.wendlanb.364108.Sherpa.DAOD_TOPQ1.e5271_s3126_r10724_p3629.AT21.2.58.v2.0_output.root/user.wendlanb.17413475._000002.output.root
mc16e/user.wendlanb.364108.Sherpa.DAOD_TOPQ1.e5271_s3126_r10724_p3629.AT21.2.58.v2.0_output.root/user.wendlanb.17413475._000003.output.root
mc16e/user.wendlanb.364108.Sherpa.DAOD_TOPQ1.e5271_s3126_r10724_p3629.AT21.2.58.v2.0_output.root/user.wendlanb.17413475._000004.output.root
mc16e/user.wendlanb.364108.Sherpa.DAOD_TOPQ1.e5271_s3126_r10724_p3629.AT21.2.58.v2.0_output.root/user.wendlanb.17413475._000005.output.root
mc16e/user.wendlanb.364108.Sherpa.DAOD_TOPQ1.e5271_s3126_r10724_p3629.AT21.2.58.v2.0_output.root/user.wendlanb.17413475._000006.output.root
mc16e/user.wendlanb.364109.Sherpa.DAOD_TOPQ1.e5271_s3126_r10724_p3629.AT21.2.58.v2.0_output.root/user.wendlanb.17413476._000001.output.root
mc16e/user.wendlanb.364109.Sherpa.DAOD_TOPQ1.e5271_s3126_r10724_p3629.AT21.2.58.v2.0_output.root/user.wendlanb.17413476._000002.output.root
mc16e/user.wendlanb.364109.Sherpa.DAOD_TOPQ1.e5271_s3126_r10724_p3629.AT21.2.58.v2.0_output.root/user.wendlanb.17413476._000003.output.root
mc16e/user.wendlanb.364110.Sherpa.DAOD_TOPQ1.e5271_s3126_r10724_p3629.AT21.2.58.v2.0_output.root/user.wendlanb.17413479._000001.output.root
mc16e/user.wendlanb.364110.Sherpa.DAOD_TOPQ1.e5271_s3126_r10724_p3629.AT21.2.58.v2.0_output.root/user.wendlanb.17413479._000002.output.root
mc16e/user.wendlanb.364111.Sherpa.DAOD_TOPQ1.e5271_s3126_r10724_p3629.AT21.2.58.v2.0_output.root/user.wendlanb.17413480._000001.output.root
mc16e/user.wendlanb.364111.Sherpa.DAOD_TOPQ1.e5271_s3126_r10724_p3629.AT21.2.58.v2.0_output.root/user.wendlanb.17413480._000002.output.root
mc16e/user.wendlanb.364111.Sherpa.DAOD_TOPQ1.e5271_s3126_r10724_p3629.AT21.2.58.v2.0_output.root/user.wendlanb.17413480._000003.output.root
mc16e/user.wendlanb.364111.Sherpa.DAOD_TOPQ1.e5271_s3126_r10724_p3629.AT21.2.58.v2.0_output.root/user.wendlanb.17413480._000004.output.root
mc16e/user.wendlanb.364112.Sherpa.DAOD_TOPQ1.e5271_s3126_r10724_p3629.AT21.2.58.v2.0_output.root/user.wendlanb.17413484._000001.output.root
mc16e/user.wendlanb.364112.Sherpa.DAOD_TOPQ1.e5271_s3126_r10724_p3629.AT21.2.58.v2.0_output.root/user.wendlanb.17413484._000002.output.root
mc16e/user.wendlanb.364112.Sherpa.DAOD_TOPQ1.e5271_s3126_r10724_p3629.AT21.2.58.v2.0_output.root/user.wendlanb.17413484._000003.output.root
mc16e/user.wendlanb.364112.Sherpa.DAOD_TOPQ1.e5271_s3126_r10724_p3629.AT21.2.58.v2.0_output.root/user.wendlanb.17413484._000004.output.root
mc16e/user.wendlanb.364113.Sherpa.DAOD_TOPQ1.e5271_s3126_r10724_p3629.AT21.2.58.v2.0_output.root/user.wendlanb.17413485._000002.output.root
mc16e/user.wendlanb.364113.Sherpa.DAOD_TOPQ1.e5271_s3126_r10724_p3629.AT21.2.58.v2.0_output.root/user.wendlanb.17413485._000003.output.root
mc16e/user.wendlanb.364114.Sherpa.DAOD_TOPQ1.e5299_s3126_r10724_p3629.AT21.2.58.v2.0_output.root/user.wendlanb.17413415._000001.output.root
mc16e/user.wendlanb.364114.Sherpa.DAOD_TOPQ1.e5299_s3126_r10724_p3629.AT21.2.58.v2.0_output.root/user.wendlanb.17413415._000002.output.root
mc16e/user.wendlanb.364114.Sherpa.DAOD_TOPQ1.e5299_s3126_r10724_p3629.AT21.2.58.v2.0_output.root/user.wendlanb.17413415._000003.output.root
mc16e/user.wendlanb.364115.Sherpa.DAOD_TOPQ1.e5299_s3126_r10724_p3629.AT21.2.58.v2.0_output.root/user.wendlanb.17413420._000001.output.root
mc16e/user.wendlanb.364115.Sherpa.DAOD_TOPQ1.e5299_s3126_r10724_p3629.AT21.2.58.v2.0_output.root/user.wendlanb.17413420._000002.output.root
mc16e/user.wendlanb.364115.Sherpa.DAOD_TOPQ1.e5299_s3126_r10724_p3629.AT21.2.58.v2.0_output.root/user.wendlanb.17413420._000003.output.root
mc16e/user.wendlanb.364115.Sherpa.DAOD_TOPQ1.e5299_s3126_r10724_p3629.AT21.2.58.v2.0_output.root/user.wendlanb.17413420._000004.output.root
mc16e/user.wendlanb.364115.Sherpa.DAOD_TOPQ1.e5299_s3126_r10724_p3629.AT21.2.58.v2.0_output.root/user.wendlanb.17413420._000005.output.root
mc16e/user.wendlanb.364115.Sherpa.DAOD_TOPQ1.e5299_s3126_r10724_p3629.AT21.2.58.v2.0_output.root/user.wendlanb.17413420._000006.output.root
mc16e/user.wendlanb.364115.Sherpa.DAOD_TOPQ1.e5299_s3126_r10724_p3629.AT21.2.58.v2.0_output.root/user.wendlanb.17413420._000007.output.root
mc16e/user.wendlanb.364116.Sherpa.DAOD_TOPQ1.e5299_s3126_r10724_p3629.AT21.2.58.v2.0_output.root/user.wendlanb.17413424._000002.output.root
mc16e/user.wendlanb.364116.Sherpa.DAOD_TOPQ1.e5299_s3126_r10724_p3629.AT21.2.58.v2.0_output.root/user.wendlanb.17413424._000003.output.root
mc16e/user.wendlanb.364116.Sherpa.DAOD_TOPQ1.e5299_s3126_r10724_p3629.AT21.2.58.v2.0_output.root/user.wendlanb.17413424._000005.output.root
mc16e/user.wendlanb.364116.Sherpa.DAOD_TOPQ1.e5299_s3126_r10724_p3629.AT21.2.58.v2.0_output.root/user.wendlanb.17413424._000006.output.root
mc16e/user.wendlanb.364116.Sherpa.DAOD_TOPQ1.e5299_s3126_r10724_p3629.AT21.2.58.v2.0_output.root/user.wendlanb.17413424._000007.output.root
mc16e/user.wendlanb.364117.Sherpa.DAOD_TOPQ1.e5299_s3126_r10724_p3629.AT21.2.58.v2.0_output.root/user.wendlanb.17413427._000001.output.root
mc16e/user.wendlanb.364117.Sherpa.DAOD_TOPQ1.e5299_s3126_r10724_p3629.AT21.2.58.v2.0_output.root/user.wendlanb.17413427._000002.output.root
mc16e/user.wendlanb.364117.Sherpa.DAOD_TOPQ1.e5299_s3126_r10724_p3629.AT21.2.58.v2.0_output.root/user.wendlanb.17413427._000003.output.root
mc16e/user.wendlanb.364117.Sherpa.DAOD_TOPQ1.e5299_s3126_r10724_p3629.AT21.2.58.v2.0_output.root/user.wendlanb.17413427._000004.output.root
mc16e/user.wendlanb.364118.Sherpa.DAOD_TOPQ1.e5299_s3126_r10724_p3629.AT21.2.58.v2.0_output.root/user.wendlanb.17413428._000001.output.root
mc16e/user.wendlanb.364118.Sherpa.DAOD_TOPQ1.e5299_s3126_r10724_p3629.AT21.2.58.v2.0_output.root/user.wendlanb.17413428._000002.output.root
mc16e/user.wendlanb.364118.Sherpa.DAOD_TOPQ1.e5299_s3126_r10724_p3629.AT21.2.58.v2.0_output.root/user.wendlanb.17413428._000003.output.root
mc16e/user.wendlanb.364119.Sherpa.DAOD_TOPQ1.e5299_s3126_r10724_p3629.AT21.2.58.v2.0_output.root/user.wendlanb.17413433._000001.output.root
mc16e/user.wendlanb.364119.Sherpa.DAOD_TOPQ1.e5299_s3126_r10724_p3629.AT21.2.58.v2.0_output.root/user.wendlanb.17413433._000002.output.root
mc16e/user.wendlanb.364119.Sherpa.DAOD_TOPQ1.e5299_s3126_r10724_p3629.AT21.2.58.v2.0_output.root/user.wendlanb.17413433._000003.output.root
mc16e/user.wendlanb.364119.Sherpa.DAOD_TOPQ1.e5299_s3126_r10724_p3629.AT21.2.58.v2.0_output.root/user.wendlanb.17413433._000004.output.root
mc16e/user.wendlanb.364120.Sherpa.DAOD_TOPQ1.e5299_s3126_r10724_p3629.AT21.2.58.v2.0_output.root/user.wendlanb.17413438._000001.output.root
mc16e/user.wendlanb.364120.Sherpa.DAOD_TOPQ1.e5299_s3126_r10724_p3629.AT21.2.58.v2.0_output.root/user.wendlanb.17413438._000002.output.root
mc16e/user.wendlanb.364120.Sherpa.DAOD_TOPQ1.e5299_s3126_r10724_p3629.AT21.2.58.v2.0_output.root/user.wendlanb.17413438._000003.output.root
mc16e/user.wendlanb.364120.Sherpa.DAOD_TOPQ1.e5299_s3126_r10724_p3629.AT21.2.58.v2.0_output.root/user.wendlanb.17413438._000004.output.root
mc16e/user.wendlanb.364120.Sherpa.DAOD_TOPQ1.e5299_s3126_r10724_p3629.AT21.2.58.v2.0_output.root/user.wendlanb.17413438._000005.output.root
mc16e/user.wendlanb.364121.Sherpa.DAOD_TOPQ1.e5299_s3126_r10724_p3629.AT21.2.58.v2.0_output.root/user.wendlanb.17413439._000001.output.root
mc16e/user.wendlanb.364121.Sherpa.DAOD_TOPQ1.e5299_s3126_r10724_p3629.AT21.2.58.v2.0_output.root/user.wendlanb.17413439._000002.output.root
mc16e/user.wendlanb.364121.Sherpa.DAOD_TOPQ1.e5299_s3126_r10724_p3629.AT21.2.58.v2.0_output.root/user.wendlanb.17413439._000003.output.root
mc16e/user.wendlanb.364121.Sherpa.DAOD_TOPQ1.e5299_s3126_r10724_p3629.AT21.2.58.v2.0_output.root/user.wendlanb.17413439._000004.output.root
mc16e/user.wendlanb.364122.Sherpa.DAOD_TOPQ1.e5299_s3126_r10724_p3629.AT21.2.58.v2.0_output.root/user.wendlanb.17413442._000001.output.root
mc16e/user.wendlanb.364122.Sherpa.DAOD_TOPQ1.e5299_s3126_r10724_p3629.AT21.2.58.v2.0_output.root/user.wendlanb.17413442._000002.output.root
mc16e/user.wendlanb.364122.Sherpa.DAOD_TOPQ1.e5299_s3126_r10724_p3629.AT21.2.58.v2.0_output.root/user.wendlanb.17413442._000003.output.root
mc16e/user.wendlanb.364122.Sherpa.DAOD_TOPQ1.e5299_s3126_r10724_p3629.AT21.2.58.v2.0_output.root/user.wendlanb.17413442._000004.output.root
mc16e/user.wendlanb.364123.Sherpa.DAOD_TOPQ1.e5299_s3126_r10724_p3629.AT21.2.58.v2.0_output.root/user.wendlanb.17413444._000001.output.root
mc16e/user.wendlanb.364123.Sherpa.DAOD_TOPQ1.e5299_s3126_r10724_p3629.AT21.2.58.v2.0_output.root/user.wendlanb.17413444._000002.output.root
mc16e/user.wendlanb.364123.Sherpa.DAOD_TOPQ1.e5299_s3126_r10724_p3629.AT21.2.58.v2.0_output.root/user.wendlanb.17413444._000003.output.root
mc16e/user.wendlanb.364123.Sherpa.DAOD_TOPQ1.e5299_s3126_r10724_p3629.AT21.2.58.v2.0_output.root/user.wendlanb.17413444._000004.output.root
mc16e/user.wendlanb.364123.Sherpa.DAOD_TOPQ1.e5299_s3126_r10724_p3629.AT21.2.58.v2.0_output.root/user.wendlanb.17413444._000005.output.root
mc16e/user.wendlanb.364124.Sherpa.DAOD_TOPQ1.e5299_s3126_r10724_p3629.AT21.2.58.v2.0_output.root/user.wendlanb.17413449._000001.output.root
mc16e/user.wendlanb.364124.Sherpa.DAOD_TOPQ1.e5299_s3126_r10724_p3629.AT21.2.58.v2.0_output.root/user.wendlanb.17413449._000002.output.root
mc16e/user.wendlanb.364124.Sherpa.DAOD_TOPQ1.e5299_s3126_r10724_p3629.AT21.2.58.v2.0_output.root/user.wendlanb.17413449._000003.output.root
mc16e/user.wendlanb.364124.Sherpa.DAOD_TOPQ1.e5299_s3126_r10724_p3629.AT21.2.58.v2.0_output.root/user.wendlanb.17413449._000004.output.root
mc16e/user.wendlanb.364125.Sherpa.DAOD_TOPQ1.e5299_s3126_r10724_p3629.AT21.2.58.v2.0_output.root/user.wendlanb.17413452._000001.output.root
mc16e/user.wendlanb.364125.Sherpa.DAOD_TOPQ1.e5299_s3126_r10724_p3629.AT21.2.58.v2.0_output.root/user.wendlanb.17413452._000003.output.root
mc16e/user.wendlanb.364125.Sherpa.DAOD_TOPQ1.e5299_s3126_r10724_p3629.AT21.2.58.v2.0_output.root/user.wendlanb.17413452._000006.output.root
mc16e/user.wendlanb.364125.Sherpa.DAOD_TOPQ1.e5299_s3126_r10724_p3629.AT21.2.58.v2.0_output.root/user.wendlanb.17413452._000007.output.root
mc16e/user.wendlanb.364125.Sherpa.DAOD_TOPQ1.e5299_s3126_r10724_p3629.AT21.2.58.v2.0_output.root/user.wendlanb.17413452._000008.output.root
mc16e/user.wendlanb.364126.Sherpa.DAOD_TOPQ1.e5299_s3126_r10724_p3629.AT21.2.58.v2.0_output.root/user.wendlanb.17413453._000001.output.root
mc16e/user.wendlanb.364126.Sherpa.DAOD_TOPQ1.e5299_s3126_r10724_p3629.AT21.2.58.v2.0_output.root/user.wendlanb.17413453._000002.output.root
mc16e/user.wendlanb.364126.Sherpa.DAOD_TOPQ1.e5299_s3126_r10724_p3629.AT21.2.58.v2.0_output.root/user.wendlanb.17413453._000003.output.root
mc16e/user.wendlanb.364127.Sherpa.DAOD_TOPQ1.e5299_s3126_r10724_p3629.AT21.2.58.v2.0_output.root/user.wendlanb.17413454._000001.output.root
mc16e/user.wendlanb.364127.Sherpa.DAOD_TOPQ1.e5299_s3126_r10724_p3629.AT21.2.58.v2.0_output.root/user.wendlanb.17413454._000002.output.root
mc16e/user.wendlanb.364128.Sherpa.DAOD_TOPQ1.e5307_s3126_r10724_p3629.AT21.2.58.v2.0_output.root/user.wendlanb.17413486._000001.output.root
mc16e/user.wendlanb.364128.Sherpa.DAOD_TOPQ1.e5307_s3126_r10724_p3629.AT21.2.58.v2.0_output.root/user.wendlanb.17413486._000002.output.root
mc16e/user.wendlanb.364128.Sherpa.DAOD_TOPQ1.e5307_s3126_r10724_p3629.AT21.2.58.v2.0_output.root/user.wendlanb.17413486._000003.output.root
mc16e/user.wendlanb.364128.Sherpa.DAOD_TOPQ1.e5307_s3126_r10724_p3629.AT21.2.58.v2.0_output.root/user.wendlanb.17413486._000004.output.root
mc16e/user.wendlanb.364129.Sherpa.DAOD_TOPQ1.e5307_s3126_r10724_p3629.AT21.2.58.v2.0_output.root/user.wendlanb.17413488._000001.output.root
mc16e/user.wendlanb.364129.Sherpa.DAOD_TOPQ1.e5307_s3126_r10724_p3629.AT21.2.58.v2.0_output.root/user.wendlanb.17413488._000002.output.root
mc16e/user.wendlanb.364129.Sherpa.DAOD_TOPQ1.e5307_s3126_r10724_p3629.AT21.2.58.v2.0_output.root/user.wendlanb.17413488._000003.output.root
mc16e/user.wendlanb.364130.Sherpa.DAOD_TOPQ1.e5307_s3126_r10724_p3629.AT21.2.58.v2.0_output.root/user.wendlanb.17413491._000002.output.root
mc16e/user.wendlanb.364130.Sherpa.DAOD_TOPQ1.e5307_s3126_r10724_p3629.AT21.2.58.v2.0_output.root/user.wendlanb.17413491._000003.output.root
mc16e/user.wendlanb.364130.Sherpa.DAOD_TOPQ1.e5307_s3126_r10724_p3629.AT21.2.58.v2.0_output.root/user.wendlanb.17413491._000004.output.root
mc16e/user.wendlanb.364130.Sherpa.DAOD_TOPQ1.e5307_s3126_r10724_p3629.AT21.2.58.v2.0_output.root/user.wendlanb.17413491._000005.output.root
mc16e/user.wendlanb.364130.Sherpa.DAOD_TOPQ1.e5307_s3126_r10724_p3629.AT21.2.58.v2.0_output.root/user.wendlanb.17413491._000006.output.root
mc16e/user.wendlanb.364131.Sherpa.DAOD_TOPQ1.e5307_s3126_r10724_p3629.AT21.2.58.v2.0_output.root/user.wendlanb.17413492._000001.output.root
mc16e/user.wendlanb.364131.Sherpa.DAOD_TOPQ1.e5307_s3126_r10724_p3629.AT21.2.58.v2.0_output.root/user.wendlanb.17413492._000002.output.root
mc16e/user.wendlanb.364131.Sherpa.DAOD_TOPQ1.e5307_s3126_r10724_p3629.AT21.2.58.v2.0_output.root/user.wendlanb.17413492._000003.output.root
mc16e/user.wendlanb.364132.Sherpa.DAOD_TOPQ1.e5307_s3126_r10724_p3629.AT21.2.58.v2.0_output.root/user.wendlanb.17413496._000001.output.root
mc16e/user.wendlanb.364132.Sherpa.DAOD_TOPQ1.e5307_s3126_r10724_p3629.AT21.2.58.v2.0_output.root/user.wendlanb.17413496._000002.output.root
mc16e/user.wendlanb.364132.Sherpa.DAOD_TOPQ1.e5307_s3126_r10724_p3629.AT21.2.58.v2.0_output.root/user.wendlanb.17413496._000003.output.root
mc16e/user.wendlanb.364133.Sherpa.DAOD_TOPQ1.e5307_s3126_r10724_p3629.AT21.2.58.v2.0_output.root/user.wendlanb.17413497._000001.output.root
mc16e/user.wendlanb.364133.Sherpa.DAOD_TOPQ1.e5307_s3126_r10724_p3629.AT21.2.58.v2.0_output.root/user.wendlanb.17413497._000002.output.root
mc16e/user.wendlanb.364133.Sherpa.DAOD_TOPQ1.e5307_s3126_r10724_p3629.AT21.2.58.v2.0_output.root/user.wendlanb.17413497._000003.output.root
mc16e/user.wendlanb.364133.Sherpa.DAOD_TOPQ1.e5307_s3126_r10724_p3629.AT21.2.58.v2.0_output.root/user.wendlanb.17413497._000004.output.root
mc16e/user.wendlanb.364133.Sherpa.DAOD_TOPQ1.e5307_s3126_r10724_p3629.AT21.2.58.v2.0_output.root/user.wendlanb.17413497._000005.output.root
mc16e/user.wendlanb.364134.Sherpa.DAOD_TOPQ1.e5307_s3126_r10724_p3629.AT21.2.58.v2.0_output.root/user.wendlanb.17413500._000001.output.root
mc16e/user.wendlanb.364134.Sherpa.DAOD_TOPQ1.e5307_s3126_r10724_p3629.AT21.2.58.v2.0_output.root/user.wendlanb.17413500._000002.output.root
mc16e/user.wendlanb.364134.Sherpa.DAOD_TOPQ1.e5307_s3126_r10724_p3629.AT21.2.58.v2.0_output.root/user.wendlanb.17413500._000003.output.root
mc16e/user.wendlanb.364134.Sherpa.DAOD_TOPQ1.e5307_s3126_r10724_p3629.AT21.2.58.v2.0_output.root/user.wendlanb.17413500._000004.output.root
mc16e/user.wendlanb.364135.Sherpa.DAOD_TOPQ1.e5307_s3126_r10724_p3629.AT21.2.58.v2.0_output.root/user.wendlanb.17413502._000001.output.root
mc16e/user.wendlanb.364135.Sherpa.DAOD_TOPQ1.e5307_s3126_r10724_p3629.AT21.2.58.v2.0_output.root/user.wendlanb.17413502._000002.output.root
mc16e/user.wendlanb.364135.Sherpa.DAOD_TOPQ1.e5307_s3126_r10724_p3629.AT21.2.58.v2.0_output.root/user.wendlanb.17413502._000003.output.root
mc16e/user.wendlanb.364136.Sherpa.DAOD_TOPQ1.e5307_s3126_r10724_p3629.AT21.2.58.v2.0_output.root/user.wendlanb.17413505._000002.output.root
mc16e/user.wendlanb.364136.Sherpa.DAOD_TOPQ1.e5307_s3126_r10724_p3629.AT21.2.58.v2.0_output.root/user.wendlanb.17413505._000003.output.root
mc16e/user.wendlanb.364136.Sherpa.DAOD_TOPQ1.e5307_s3126_r10724_p3629.AT21.2.58.v2.0_output.root/user.wendlanb.17413505._000004.output.root
mc16e/user.wendlanb.364136.Sherpa.DAOD_TOPQ1.e5307_s3126_r10724_p3629.AT21.2.58.v2.0_output.root/user.wendlanb.17413505._000005.output.root
mc16e/user.wendlanb.364137.Sherpa.DAOD_TOPQ1.e5307_s3126_r10724_p3629.AT21.2.58.v2.0_output.root/user.wendlanb.17413507._000001.output.root
mc16e/user.wendlanb.364137.Sherpa.DAOD_TOPQ1.e5307_s3126_r10724_p3629.AT21.2.58.v2.0_output.root/user.wendlanb.17413507._000002.output.root
mc16e/user.wendlanb.364137.Sherpa.DAOD_TOPQ1.e5307_s3126_r10724_p3629.AT21.2.58.v2.0_output.root/user.wendlanb.17413507._000003.output.root
mc16e/user.wendlanb.364137.Sherpa.DAOD_TOPQ1.e5307_s3126_r10724_p3629.AT21.2.58.v2.0_output.root/user.wendlanb.17413507._000004.output.root
mc16e/user.wendlanb.364138.Sherpa.DAOD_TOPQ1.e5313_s3126_r10724_p3629.AT21.2.58.v2.0_output.root/user.wendlanb.17413512._000002.output.root
mc16e/user.wendlanb.364138.Sherpa.DAOD_TOPQ1.e5313_s3126_r10724_p3629.AT21.2.58.v2.0_output.root/user.wendlanb.17413512._000003.output.root
mc16e/user.wendlanb.364139.Sherpa.DAOD_TOPQ1.e5313_s3126_r10724_p3629.AT21.2.58.v2.0_output.root/user.wendlanb.17413513._000001.output.root
mc16e/user.wendlanb.364139.Sherpa.DAOD_TOPQ1.e5313_s3126_r10724_p3629.AT21.2.58.v2.0_output.root/user.wendlanb.17413513._000002.output.root
mc16e/user.wendlanb.364139.Sherpa.DAOD_TOPQ1.e5313_s3126_r10724_p3629.AT21.2.58.v2.0_output.root/user.wendlanb.17413513._000003.output.root
mc16e/user.wendlanb.364139.Sherpa.DAOD_TOPQ1.e5313_s3126_r10724_p3629.AT21.2.58.v2.0_output.root/user.wendlanb.17413513._000004.output.root
mc16e/user.wendlanb.364140.Sherpa.DAOD_TOPQ1.e5307_s3126_r10724_p3629.AT21.2.58.v2.0_output.root/user.wendlanb.17413515._000002.output.root
mc16e/user.wendlanb.364140.Sherpa.DAOD_TOPQ1.e5307_s3126_r10724_p3629.AT21.2.58.v2.0_output.root/user.wendlanb.17413515._000003.output.root
mc16e/user.wendlanb.364140.Sherpa.DAOD_TOPQ1.e5307_s3126_r10724_p3629.AT21.2.58.v2.0_output.root/user.wendlanb.17413515._000004.output.root
mc16e/user.wendlanb.364140.Sherpa.DAOD_TOPQ1.e5307_s3126_r10724_p3629.AT21.2.58.v2.0_output.root/user.wendlanb.17413515._000005.output.root
mc16e/user.wendlanb.364141.Sherpa.DAOD_TOPQ1.e5307_s3126_r10724_p3629.AT21.2.58.v2.0_output.root/user.wendlanb.17413516._000001.output.root
mc16e/user.wendlanb.364141.Sherpa.DAOD_TOPQ1.e5307_s3126_r10724_p3629.AT21.2.58.v2.0_output.root/user.wendlanb.17413516._000002.output.root
mc16e/user.wendlanb.364141.Sherpa.DAOD_TOPQ1.e5307_s3126_r10724_p3629.AT21.2.58.v2.0_output.root/user.wendlanb.17413516._000003.output.root
